<?xml version="1.0" encoding="UTF-8"?>
<svg width="93px" height="93px" viewBox="0 0 93 93" version="1.1" xmlns="http://www.w3.org/2000/svg" xmlns:xlink="http://www.w3.org/1999/xlink">
    <!-- Generator: Sketch 49 (51002) - http://www.bohemiancoding.com/sketch -->
    <title>Group 3</title>
    <desc>Created with Sketch.</desc>
    <defs>
        <circle id="path-1" cx="42.5" cy="42.5" r="42.5"></circle>
        <filter x="-8.2%" y="-5.9%" width="116.5%" height="116.5%" filterUnits="objectBoundingBox" id="filter-2">
            <feOffset dx="0" dy="2" in="SourceAlpha" result="shadowOffsetOuter1"></feOffset>
            <feGaussianBlur stdDeviation="2" in="shadowOffsetOuter1" result="shadowBlurOuter1"></feGaussianBlur>
            <feColorMatrix values="0 0 0 0 0.850951318   0 0 0 0 0.850951318   0 0 0 0 0.850951318  0 0 0 0.307065217 0" type="matrix" in="shadowBlurOuter1"></feColorMatrix>
        </filter>
    </defs>
    <g id="Page-1" stroke="none" stroke-width="1" fill="none" fill-rule="evenodd">
        <g id="Desktop-HD-Copy-9" transform="translate(-672.000000, -369.000000)">
            <g id="Group" transform="translate(238.000000, 43.000000)">
                <g id="Group-4-Copy-5" transform="translate(330.000000, 328.000000)">
                    <g id="Group-3" transform="translate(108.000000, 0.000000)">
                        <g id="Oval">
                            <use fill="black" fill-opacity="1" filter="url(#filter-2)" xlink:href="#path-1"></use>
                            <use fill="#EDBC55" fill-rule="evenodd" xlink:href="#path-1"></use>
                        </g>
                        <g id="credit-cards-payment" transform="translate(20.000000, 23.000000)" fill="#FFFFFF" fill-rule="nonzero">
                            <path d="M43.1230769,5.87494505 L15.6638828,0.0638095238 C14.5021245,-0.181978022 13.3506227,0.567545788 13.1048352,1.72930403 L12.5831502,5.0818315 L44.2664469,11.7865201 L44.7881319,8.43399267 C45.0339194,7.27267399 44.2848352,6.12080586 43.1230769,5.87494505 Z" id="Shape"></path>
                            <path d="M31.5757509,12.4975092 C31.2550183,11.3424908 30.0479853,10.6597802 28.8933333,10.98 L23.6805861,12.4271062 L11.3917949,9.82637363 L10.040293,16.2120879 L1.59604396,18.5558242 C0.441465201,18.8761172 -0.241245421,20.0831502 0.078974359,21.2378022 L4.8378022,38.3863736 C5.1585348,39.5409524 6.36564103,40.2241026 7.52021978,39.9034432 L34.8175092,32.3281319 C35.9720879,32.0073993 36.6547985,30.8008059 36.3345788,29.6457143 L35.5177289,26.7018315 L38.5791941,27.3490842 C39.7409524,27.5953114 40.8924542,26.8457875 41.1382418,25.6840293 L43.0751648,16.5311355 L32.047619,14.1975824 L31.5757509,12.4975092 Z M34.7282051,21.2131136 L35.4032967,18.0224908 C35.5046886,17.5447619 35.9783883,17.23663 36.456044,17.3375092 L39.6466667,18.0130403 C40.1248352,18.1144322 40.432967,18.587619 40.3320879,19.0657875 L39.6569963,22.2564103 C39.5556044,22.7341392 39.081978,23.0427106 38.6042491,22.9413919 L35.4136264,22.2663004 C34.9350183,22.1645421 34.6268132,21.6908425 34.7282051,21.2131136 Z M2.07106227,20.2671062 L9.62527473,18.1714286 L27.4493773,13.2251282 L29.3673993,12.6922344 C29.4024176,12.6827839 29.4373626,12.678315 29.4715018,12.678315 C29.625348,12.678315 29.809304,12.7792674 29.8630769,12.9726007 L30.0882784,13.7835897 L30.7938462,16.3260073 L2.7214652,24.1161905 L1.79069597,20.7632234 C1.73238095,20.5528205 1.8607326,20.3254212 2.07106227,20.2671062 Z M34.6227839,30.1202198 C34.6586813,30.2503297 34.6210256,30.3579487 34.5828571,30.4252747 C34.5452015,30.4925275 34.4725275,30.5805128 34.3424176,30.616337 L7.04564103,38.1916484 C7.01113553,38.2010989 6.97567766,38.2060073 6.94153846,38.2060073 C6.78769231,38.2060073 6.60373626,38.1046154 6.54996337,37.9112821 L3.77428571,27.9087912 L31.8466667,20.1181685 L33.5588278,26.2872527 L34.6227839,30.1202198 Z" id="Shape"></path>
                            <path d="M11.456337,30.8046886 C11.325348,30.3336996 10.8336996,30.0556044 10.3627106,30.1861538 L7.17479853,31.0711355 C6.70424908,31.201685 6.42571429,31.6937729 6.5567033,32.1647619 L7.44124542,35.3522344 C7.57223443,35.8232234 8.06388278,36.1013187 8.53487179,35.9703297 L11.7227839,35.0857875 C12.1937729,34.9552381 12.4718681,34.4631502 12.3413187,33.9921612 L11.456337,30.8046886 Z" id="Shape"></path>
                        </g>
                    </g>
                </g>
            </g>
        </g>
    </g>
</svg>