<?xml version="1.0" encoding="UTF-8"?>
<svg width="52px" height="52px" viewBox="0 0 52 52" version="1.1" xmlns="http://www.w3.org/2000/svg" xmlns:xlink="http://www.w3.org/1999/xlink">
    <!-- Generator: Sketch 49 (51002) - http://www.bohemiancoding.com/sketch -->
    <title>Group 18</title>
    <desc>Created with Sketch.</desc>
    <defs></defs>
    <g id="Page-1" stroke="none" stroke-width="1" fill="none" fill-rule="evenodd">
        <g id="Desktop-HD-Copy-8" transform="translate(-719.000000, -346.000000)">
            <g id="Group" transform="translate(280.000000, 250.000000)">
                <g id="Group-19" transform="translate(393.000000, 0.000000)">
                    <g id="Group-17" transform="translate(46.000000, 76.000000)">
                        <g id="Group-16">
                            <g id="Group-18" transform="translate(0.000000, 20.000000)">
                                <circle id="Oval-2" stroke="#FCEBC7" stroke-width="2" cx="26" cy="26" r="25"></circle>
                                <g id="phone-receiver" transform="translate(16.000000, 16.000000)" fill="#FFFFFF" fill-rule="nonzero">
                                    <path d="M19.9941176,15.7829758 C20.0365052,16.1077163 19.9375433,16.3900692 19.6976471,16.6300346 L16.8811765,19.4252249 C16.7541176,19.5664014 16.5882699,19.6865052 16.383564,19.7852249 C16.1788581,19.884083 15.9777163,19.9476125 15.7801384,19.9758131 C15.7660208,19.9758131 15.723564,19.9794464 15.6529412,19.9865052 C15.5824567,19.9935294 15.490692,19.997128 15.3777509,19.997128 C15.1094464,19.997128 14.6752941,19.9512457 14.0752941,19.8594464 C13.4752941,19.7676471 12.7412111,19.5417301 11.873045,19.1817993 C11.0046713,18.8217993 10.02,18.2817301 8.91885813,17.5617993 C7.81771626,16.8419031 6.64591696,15.8535986 5.40356401,14.5970934 C4.41532872,13.6229758 3.59650519,12.6912111 2.94709343,11.8018339 C2.29768166,10.9123875 1.77532872,10.0900346 1.3800346,9.33474048 C0.984705882,8.57944637 0.688235294,7.89474048 0.490588235,7.28062284 C0.292941176,6.66650519 0.158823529,6.13709343 0.0882352941,5.69238754 C0.0176470588,5.24768166 -0.0105882353,4.8982699 0.00352941176,4.64415225 C0.0176470588,4.3900346 0.0247058824,4.24885813 0.0247058824,4.22062284 C0.0529411765,4.02297578 0.116470588,3.82179931 0.215294118,3.61709343 C0.314117647,3.41238754 0.434117647,3.24650519 0.575294118,3.11944637 L3.39176471,0.302975779 C3.58941176,0.10532872 3.81529412,0.00650519031 4.06941176,0.00650519031 C4.25294118,0.00650519031 4.41529412,0.0594463668 4.55647059,0.16532872 C4.69764706,0.271211073 4.81764706,0.401799308 4.91647059,0.557093426 L7.18235294,4.85591696 C7.30941176,5.08179931 7.34470588,5.32885813 7.28823529,5.59709343 C7.23176471,5.86532872 7.11176471,6.09121107 6.92823529,6.27474048 L5.89058824,7.31238754 C5.86235294,7.34062284 5.83764706,7.38650519 5.81647059,7.4500346 C5.79529412,7.51356401 5.78470588,7.56650519 5.78470588,7.60885813 C5.84117647,7.90532872 5.96823529,8.24415225 6.16588235,8.62532872 C6.33529412,8.96415225 6.59647059,9.37709343 6.94941176,9.86415225 C7.30235294,10.3512111 7.80352941,10.9123529 8.45294118,11.5476471 C9.08823529,12.197128 9.65294118,12.7017647 10.1470588,13.0618339 C10.6410727,13.4216955 11.0541522,13.6865052 11.385917,13.855917 C11.7176817,14.0253287 11.9717993,14.1276817 12.1482353,14.162872 L12.412872,14.2158478 C12.4411073,14.2158478 12.4870934,14.2052249 12.5505536,14.184083 C12.614083,14.162872 12.6599654,14.1382007 12.6882353,14.1099308 L13.8952595,12.8816955 C14.1495156,12.6558478 14.4458478,12.5429066 14.7847059,12.5429066 C15.0247751,12.5429066 15.2152595,12.5852249 15.356436,12.6699654 L15.3775779,12.6699654 L19.4646021,15.084083 C19.7611765,15.2677509 19.9376125,15.5006228 19.9941176,15.7829758 Z" id="Shape"></path>
                                </g>
                            </g>
                        </g>
                    </g>
                </g>
            </g>
        </g>
    </g>
</svg>