<?xml version="1.0" encoding="UTF-8"?>
<svg width="52px" height="52px" viewBox="0 0 52 52" version="1.1" xmlns="http://www.w3.org/2000/svg" xmlns:xlink="http://www.w3.org/1999/xlink">
    <!-- Generator: Sketch 49 (51002) - http://www.bohemiancoding.com/sketch -->
    <title>Group 18 Copy</title>
    <desc>Created with Sketch.</desc>
    <defs></defs>
    <g id="Page-1" stroke="none" stroke-width="1" fill="none" fill-rule="evenodd">
        <g id="Desktop-HD-Copy-8" transform="translate(-719.000000, -456.000000)">
            <g id="Group" transform="translate(280.000000, 250.000000)">
                <g id="Group-19" transform="translate(393.000000, 0.000000)">
                    <g id="Group-17" transform="translate(46.000000, 76.000000)">
                        <g id="Group-15" transform="translate(0.000000, 120.000000)">
                            <g id="Group-18-Copy" transform="translate(0.000000, 10.000000)">
                                <circle id="Oval-2" stroke="#FCEBC7" stroke-width="2" cx="26" cy="26" r="25"></circle>
                                <g id="black-back-closed-envelope-shape" transform="translate(15.000000, 17.000000)" fill="#FFFFFF" fill-rule="nonzero">
                                    <path d="M20.8522725,17.9909376 C21.3669561,17.9909376 21.8129238,17.8209977 22.1920462,17.4854411 L15.7050208,10.9981663 C15.5493811,11.1096166 15.3985219,11.2179908 15.2560185,11.3210439 C14.7705589,11.6787159 14.3765543,11.9578199 14.0740046,12.1578152 C13.7714965,12.3582679 13.3690115,12.5625866 12.8665912,12.7711871 C12.3638383,12.980037 11.8954642,13.0841293 11.46097,13.0841293 L11.4482494,13.0841293 L11.4355289,13.0841293 C11.0009931,13.0841293 10.5326189,12.9800785 10.0299076,12.7711871 C9.5271963,12.5625866 9.12471132,12.3582679 8.82249423,12.1578152 C8.51998614,11.9578199 8.12618938,11.6787575 7.64048037,11.3210439 C7.50512702,11.2218152 7.35501617,11.1129423 7.19272517,10.9964203 L0.704452656,17.4854411 C1.08353349,17.8209977 1.52979215,17.9909376 2.04443418,17.9909376 L20.8522725,17.9909376 Z" id="Shape"></path>
                                    <path d="M1.29063741,6.9131224 C0.8052194,6.58949654 0.374757506,6.2188545 0,5.80136259 L0,15.671224 L5.71763972,9.9535843 C4.57378753,9.15501617 3.09999076,8.14269284 1.29063741,6.9131224 Z" id="Shape"></path>
                                    <path d="M21.6190808,6.9131224 C19.8787344,8.09106236 18.3995751,9.10513164 17.1814365,9.95587067 L22.8967898,15.6714734 L22.8967898,5.80136259 C22.5303464,6.21045727 22.1044988,6.58084988 21.6190808,6.9131224 Z" id="Shape"></path>
                                    <path d="M20.8522725,0.000540415704 L2.04447575,0.000540415704 C1.38832794,0.000540415704 0.88387067,0.222110855 0.53048037,0.664794457 C0.176799076,1.10768591 0.000249422633,1.66157044 0.000249422633,2.32582448 C0.000249422633,2.86237413 0.234540416,3.44373672 0.70291455,4.07007852 C1.17128868,4.6961709 1.66967667,5.18794919 2.1978291,5.54566282 C2.48736721,5.75023095 3.3605127,6.35724249 4.81726559,7.36648961 C5.60365358,7.91143649 6.28752887,8.38642032 6.87521016,8.79630485 C7.37613395,9.14533025 7.80813395,9.44758891 8.16480831,9.69842494 C8.2057552,9.72715012 8.27014781,9.77321016 8.35561663,9.83431871 C8.44769515,9.90045727 8.56421709,9.98438799 8.70796767,10.0881894 C8.98478522,10.2883926 9.21475289,10.4502263 9.39791224,10.5738568 C9.58082217,10.6975289 9.80243418,10.8356674 10.0624157,10.9890624 C10.3221894,11.1422494 10.5672055,11.2574411 10.7971732,11.3340554 C11.0271824,11.4106282 11.2401062,11.4490393 11.4359861,11.4490393 L11.4487067,11.4490393 L11.4614273,11.4490393 C11.6572656,11.4490393 11.8702309,11.4106282 12.1002818,11.3340554 C12.3302079,11.2574411 12.5750162,11.1424988 12.8349977,10.9890624 C13.0947298,10.8356674 13.3160508,10.6972379 13.4995427,10.5738568 C13.6827021,10.4502263 13.9126697,10.2884342 14.1895289,10.0881894 C14.3329885,9.98438799 14.4495104,9.9004157 14.5415889,9.83452656 C14.6270993,9.77316859 14.6914503,9.72739954 14.7326467,9.69842494 C15.0105035,9.50508083 15.4435012,9.20406928 16.0256536,8.79983834 C17.0849515,8.06383372 18.6450069,6.98054965 20.712388,5.54566282 C21.334157,5.11137644 21.8536212,4.58729792 22.2711132,3.97417552 C22.6878568,3.36105312 22.8967898,2.71791686 22.8967898,2.0449746 C22.8967898,1.48273441 22.6942171,1.00163972 22.2899446,0.600942263 C21.8852148,0.200743649 21.4059492,0.000540415704 20.8522725,0.000540415704 Z" id="Shape"></path>
                                </g>
                            </g>
                        </g>
                    </g>
                </g>
            </g>
        </g>
    </g>
</svg>